\relax 
\catcode `^\active 
\catcode `"\active 
\catcode `'\active 
\catcode `-\active 
\babel@aux{slovak}{}
\@writefile{toc}{\contentsline {section}{\numberline {1}Popis programu}{1}\protected@file@percent }
\@writefile{toc}{\contentsline {section}{\numberline {2}Kni\IeC {\v z}nice}{1}\protected@file@percent }
\@writefile{toc}{\contentsline {section}{\numberline {3}\IeC {\v S}trukt\IeC {\'u}ra programu}{1}\protected@file@percent }
\@writefile{toc}{\contentsline {section}{\numberline {4}Spracovanie vstupu}{1}\protected@file@percent }
\@writefile{toc}{\contentsline {subsection}{\numberline {4.1}Spracovanie vstupn\IeC {\'y}ch parametrov}{2}\protected@file@percent }
\@writefile{toc}{\contentsline {subsection}{\numberline {4.2}Spracovanie obr\IeC {\'a}zku}{2}\protected@file@percent }
\@writefile{toc}{\contentsline {subsubsection}{\numberline {4.2.1}ImagePixels}{2}\protected@file@percent }
\@writefile{toc}{\contentsline {section}{\numberline {5}Preprocessing}{2}\protected@file@percent }
\@writefile{toc}{\contentsline {subsection}{\numberline {5.1}Filtre}{2}\protected@file@percent }
\@writefile{toc}{\contentsline {subsubsection}{\numberline {5.1.1}posterize}{3}\protected@file@percent }
\@writefile{toc}{\contentsline {subsubsection}{\numberline {5.1.2}normalize}{3}\protected@file@percent }
\@writefile{toc}{\contentsline {subsubsection}{\numberline {5.1.3}grayscale}{3}\protected@file@percent }
\@writefile{toc}{\contentsline {subsubsection}{\numberline {5.1.4}invert}{3}\protected@file@percent }
\@writefile{toc}{\contentsline {section}{\numberline {6}Prevod do ASCII}{3}\protected@file@percent }
\@writefile{toc}{\contentsline {subsection}{\numberline {6.1}GlyphMap}{3}\protected@file@percent }
\@writefile{toc}{\contentsline {section}{\numberline {7}Mo\IeC {\v z}nosti vylep\IeC {\v s}enia}{4}\protected@file@percent }
