\relax 
\catcode `^\active 
\catcode `"\active 
\catcode `'\active 
\catcode `-\active 
\babel@aux{slovak}{}
\@writefile{toc}{\contentsline {section}{\numberline {1}Popis programu}{1}\protected@file@percent }
\@writefile{toc}{\contentsline {section}{\numberline {2}In\IeC {\v s}tal\IeC {\'a}cia}{1}\protected@file@percent }
\@writefile{toc}{\contentsline {section}{\numberline {3}Spustenie}{1}\protected@file@percent }
\@writefile{toc}{\contentsline {section}{\numberline {4}Vstup}{1}\protected@file@percent }
\@writefile{toc}{\contentsline {subsection}{\numberline {4.1}Obr\IeC {\'a}zky}{1}\protected@file@percent }
\@writefile{toc}{\contentsline {subsection}{\numberline {4.2}Fonty}{2}\protected@file@percent }
\@writefile{toc}{\contentsline {section}{\numberline {5}Nastavenia}{2}\protected@file@percent }
\@writefile{toc}{\contentsline {subsection}{\numberline {5.1}V\IeC {\'y}stup}{2}\protected@file@percent }
\@writefile{toc}{\contentsline {subsection}{\numberline {5.2}Spracovanie}{2}\protected@file@percent }
\@writefile{toc}{\contentsline {subsection}{\numberline {5.3}Znaky}{3}\protected@file@percent }
\@writefile{toc}{\contentsline {subsection}{\numberline {5.4}Fonty}{3}\protected@file@percent }
\@writefile{toc}{\contentsline {subsection}{\numberline {5.5}In\IeC {\'e}}{3}\protected@file@percent }
